Chapter 10 Document-term matrix | Natural Language Processing with R
…
The loaded dataset contains 2246 documents and 10473 distinct terms. We notice that this DTM is 99% sparse (99% of document-word paris are zero). We can get the terms using Terms() function.

terms = Terms(AssociatedPress)
head(terms)

## [1] "aaron"      "abandon"    "abandoned"  "abandoning" "abbott"    
## [6] "abboud"

In order to analyze the data, we should transform it inot dataframe. We can use tidy() function to do that.

ap_td = tidy(AssociatedPress)
ap_td

## # A tibble: 302,031 x 3
##    document term       count
##       <int> <chr>      <dbl>
##  1        1 adding         1
##  2        1 adult          2
##  3        1 ago            1
##  4        1 alcohol        1
##  5        1 allegedly      1
##  6        1 allen          1
##  7        1 apparently     2
##  8        1 appeared       1
##  9        1 arrested       1
## 10        1 assault        1
## # ... with 302,021 more rows

Once we have the data in a dataframe format, we can perform some analysis. Here is an example of applying sentiment analysis to evaluate the negative and positive terms in the collection.

# using "bing" database to attribute negative/positive attribute to terms
ap_sentiments = ap_td %>% 
  inner_join(get_sentiments("bing"), by = c(term = "word"))
ap_sentiments

## # A tibble: 30,094 x 4
##    document term    count sentiment
##       <int> <chr>   <dbl> <chr>    
##  1        1 assault     1 negative 
##  2        1 complex     1 negative 
##  3        1 death       1 negative 
##  4        1 died        1 negative 
##  5        1 good        2 positive 
##  6        1 illness     1 negative 
##  7        1 killed      2 negative 
##  8        1 like        2 positive 
##  9        1 liked       1 positive 
## 10        1 miracle     1 positive 
## # ... with 30,084 more rows
…
