Chapter 8 Topic modeling | Natural Language Processing with R
…
# fitting LDA model with 2 topics
ap_lda = LDA(AssociatedPress, k=2, control = list(seed = 1234))
ap_lda

## A LDA_VEM topic model with 2 topics.

Now we can extract the per-topic-per-word probabilities from the model

library(tidytext)

ap_topics = tidy(ap_lda, matrix = "beta")
ap_topics

## # A tibble: 20,946 x 3
##    topic term           beta
##    <int> <chr>         <dbl>
##  1     1 aaron      1.69e-12
##  2     2 aaron      3.90e- 5
##  3     1 abandon    2.65e- 5
##  4     2 abandon    3.99e- 5
##  5     1 abandoned  1.39e- 4
##  6     2 abandoned  5.88e- 5
##  7     1 abandoning 2.45e-33
##  8     2 abandoning 2.34e- 5
##  9     1 abbott     2.13e- 6
## 10     2 abbott     2.97e- 5
## # ... with 20,936 more rows
…
We can interpret the result as a first topic related to finanial news (“precent’,”million“,”company“) and a second topic related to political news (”president“,”government“,”states").

8.2 Document-topic probabilities

Besides estimating each topic as a mixture of words, LDA also models each document as a mixture of topics. For examining per-document-per-topic probabilities, we use the “gamma” metric.

ap_documents <- tidy(ap_lda, matrix = "gamma")
ap_documents

## # A tibble: 4,492 x 3
##    document topic    gamma
##       <int> <int>    <dbl>
##  1        1     1 0.248   
##  2        2     1 0.362   
##  3        3     1 0.527   
##  4        4     1 0.357   
##  5        5     1 0.181   
##  6        6     1 0.000588
##  7        7     1 0.773   
##  8        8     1 0.00445 
##  9        9     1 0.967   
## 10       10     1 0.147   
## # ... with 4,482 more rows
…
